[
  {
  "question": "The largest copper producing country in the World is",
  "category": "General Knowledge",
  "score": 1,
  "answers": [
    "Chile",
    "Russia",
    "South Africa",
    "China"
  ]
  },
  {
  "question": "If the radius of a circle is diminished by 10%, then its area is diminished by:",
  "category": "Math",
  "score": 1,
  "answers": [
    "19%",
    "10%",
    "15%",
    "30%"
  ]
  },
  {
    "question": "A boat travels 20 kms upstream in 6 hrs and 18 kms downstream in 4 hrs.Find the speed of the boat in still water and the speed of the water current?",
    "category": "Math",
    "score": 1,
    "answers": [
      "7/12 kmph",
      "1/12 kmph",
      "5 kmph",
      "None of the these"
    ]
  },
  {
    "question": "At what time after 4.00 p.m. is the minutes hand of a clock exactly aligned with the hour hand?",
    "category": "Aptitude",
    "score": 1,
    "answers": [
      "4:21:49.5",
      "4:27:49.5",
      "3:21:49.5",
      "4:21:44.5"
    ]
  },
  {
    "question": "A shop keeper sold a T.V set for Rs.17,940 with a discount of 8% and earned a profit of 19.6%.What would have been the percentage of profit earned if no discount was offered?",
    "category": "Math",
    "score": 1,
    "answers": [
      "None of these",
      "24.8",
      "25%",
      "26.4%",
      "Cannot be determined"
    ]
  },
  {
    "question": "If (2x-y)=4 then (6x-3y)=?",
    "category": "Math",
    "score": 1,
    "answers": [
      "12",
      "15",
      "18",
      "10"
    ]
  },
  {
    "question": "A clock is set right at 8 a.m. The clock gains 10 minutes in 24 hours. What will be the true time when the clock indicates 1 p.m. on the following day?",
    "category": "Aptitude",
    "score": 1,
    "answers": [
      "48 min. past 12",
      "38 min. past 12",
      "28 min. past 12",
      "25 min. past 12"
    ]
  },
  {
    "question": "What is the missing number in this series? 8 2 14 6 11 ? 14 6 18 12",
    "category": "Math",
    "score": 1,
    "answers": [
      "9",
      "16",
      "15",
      "6"
    ]
  },
  {
    "question": "Dinesh travelled 1200 km by air which formed 2/5 of his trip. One third of the whole trip, he travelled by car and the rest of the journey he performed by train. What was the distance travelled by train?",
    "category": "Math",
    "score": 1,
    "answers": [
      "800Km",
      "900Km",
      "700Km",
      "600Km"
    ]
  },
  {
    "question": "A train which travels at a uniform speed due to some mechanical fault after traveling for an hour goes at 3/5th of the original speed and reaches the destination 2 hrs late.If the fault had occurred after traveling another 50 miles the train would have reached 40 min earlier. What is distance between the two stations?",
    "category": "Math",
    "score": 1,
    "answers": [
      "300 miles",
      "310 miles",
      "320 miles",
      "305 miles"
    ]
  },
  {
    "question": "The average between a two digit number and the number obtained by interchanging the digits is 9. What is the difference between the two digits of the number?",
    "category": "Math",
    "score": 1,
    "answers": [
      "Cannot be determined",
      "8",
      "2",
      "5"
    ]
  },
  {
    "question": "Pipe A can fill in 20 minutes and Pipe B in 30 mins and Pipe C can empty the same in 40 mins.If all of them work together, find the time taken to fill the tank",
    "category": "Math",
    "score": 1,
    "answers": [
      "17 1/7 mins",
      "20 mins",
      "8 mins",
      "None of these"
    ]
  },
  {
    "question": "A person has 4 coins each of different denomination. What is the number of different sums of money the person can form (using one or more coins at a time)?",
    "category": "Math",
    "score": 1,
    "answers": [
      "15",
      "16",
      "12",
      "11"
    ]
  },
  {
    "question": "The simple interest on a certain sum of money for 3 years is 225 and the compound interest on the same sum at the same rate for 2 years is 153 then the principal invested is",
    "category": "Math",
    "score": 1,
    "answers": [
      "1875",
      "1500",
      "2000",
      "2250"
    ]
  },
  {
    "question": "A cow is tethered in the middle of a field with a 14 feet long rope. If the cow grazes 100 sq. ft. per day, then approximately what time will be taken by the cow to graze the whole field ?",
    "category": "Math",
    "score": 1,
    "answers": [
      "6 days",
      "2 days",
      "18 days",
      "24 days",
      "None of these"
    ]
  },
  {
    "question": "2 hours after a freight train leaves Delhi a passenger train leaves the same station travelling in the same direction at an average speed of 16 km/hr. After travelling 4 hrs the passenger train overtakes the freight train. The average speed of the freight train was?",
    "category": "Math",
    "score": 1,
    "answers": [
      "40",
      "30",
      "80",
      "60"
    ]
  },
  {
    "question": "The two colors seen at the extreme ends of the pH chart are:",
    "category": "General Knowledge",
    "score": 1,
    "answers": [
      "Red and Blue",
      "Red and Green",
      "Green and Blue",
      "Orange and Green"
    ]
  },
  {
    "question": "8 15 24 35 48 63 ?",
    "category": "Aptitude",
    "score": 1,
    "answers": [
      "80",
      "70",
      "75",
      "88"
    ]
  },
  {
    "question": "One of Mr. Horton, his wife, their son, and Mr. Horton's mother is a doctor and another is a lawyer.\n\t a) If the doctor is younger than the lawyer, then the doctor and the lawyer are not blood relatives.\n\t b) If the doctor is a woman, then the doctor and the lawyer are blood relatives.\n\t c) If the lawyer is a man, then the doctor is a man.\n Whose occupation you know?",
    "category": "Aptitude",
    "score": 1,
    "answers": [
      "Mr. Horton: he is the doctor",
      "Mr. Horton's son: he is the lawyer",
      "Mr. Horton: he is the lawyer",
      "Mr. Horton's mother: she is the doctor"
    ]
  },
  {
    "question": "In the given figure, PA and PB are tangents to the circle at A and B respectively and the chord BC is parallel to tangent PA. If AC = 6 cm, and length of the tangent AP is 9 cm, then what is the length of the chord BC?",
    "category": "Math",
    "score": 1,
    "answers": [
      "4 cm",
      "8 cm",
      "6 cm",
      "5 cm"
    ]
  }
]